<?xml version="1.0" encoding="UTF-8" standalone="no"?>
<svg
   xmlns:dc="http://purl.org/dc/elements/1.1/"
   xmlns:cc="http://creativecommons.org/ns#"
   xmlns:rdf="http://www.w3.org/1999/02/22-rdf-syntax-ns#"
   xmlns:svg="http://www.w3.org/2000/svg"
   xmlns="http://www.w3.org/2000/svg"
   xmlns:sodipodi="http://sodipodi.sourceforge.net/DTD/sodipodi-0.dtd"
   xmlns:inkscape="http://www.inkscape.org/namespaces/inkscape"
   style="enable-background:new"
   height="512"
   viewBox="0 0 512.40002 512"
   width="512.4"
   version="1.1"
   id="svg35"
   sodipodi:docname="logo.svg"
   inkscape:version="1.0.2 (e86c870879, 2021-01-15)">
  <metadata
     id="metadata39">
    <rdf:RDF>
      <cc:Work
         rdf:about="">
        <dc:format>image/svg+xml</dc:format>
        <dc:type
           rdf:resource="http://purl.org/dc/dcmitype/StillImage" />
        <dc:title></dc:title>
      </cc:Work>
    </rdf:RDF>
  </metadata>
  <sodipodi:namedview
     pagecolor="#ffffff"
     bordercolor="#666666"
     borderopacity="1"
     objecttolerance="10"
     gridtolerance="10"
     guidetolerance="10"
     inkscape:pageopacity="0"
     inkscape:pageshadow="2"
     inkscape:window-width="1882"
     inkscape:window-height="1051"
     id="namedview37"
     showgrid="false"
     inkscape:zoom="0.60974149"
     inkscape:cx="127.72615"
     inkscape:cy="155.74502"
     inkscape:window-x="0"
     inkscape:window-y="0"
     inkscape:window-maximized="1"
     inkscape:current-layer="g17"
     inkscape:document-rotation="0" />
  <defs
     id="defs7">
    <linearGradient
       id="a"
       y2="494"
       gradientUnits="userSpaceOnUse"
       x2="256"
       gradientTransform="matrix(1 0 0 1.076 0 -19.36)"
       y1="18"
       x1="256">
      <stop
         style="stop-color:#eaeaea"
         offset="0"
         id="stop2" />
      <stop
         style="stop-color:#f4f4f4"
         offset="1"
         id="stop4" />
    </linearGradient>
    <filter
       inkscape:collect="always"
       style="color-interpolation-filters:sRGB"
       id="filter70"
       x="-0.0023999274"
       width="1.0047999"
       y="-0.0024000728"
       height="1.0048001">
      <feGaussianBlur
         inkscape:collect="always"
         stdDeviation="0.038444515"
         id="feGaussianBlur72" />
    </filter>
    <filter
       inkscape:collect="always"
       style="color-interpolation-filters:sRGB"
       id="filter1028"
       x="-0.13635495"
       width="1.2727099"
       y="-0.13485337"
       height="1.2697067">
      <feGaussianBlur
         inkscape:collect="always"
         stdDeviation="24.651246"
         id="feGaussianBlur1030" />
    </filter>
    <filter
       inkscape:collect="always"
       style="color-interpolation-filters:sRGB"
       id="filter1152"
       x="-0.024037668"
       width="1.0480753"
       y="-0.023962449"
       height="1.0479249">
      <feGaussianBlur
         inkscape:collect="always"
         stdDeviation="5.1280359"
         id="feGaussianBlur1154" />
    </filter>
  </defs>
  <rect
     style="color:#000000;display:none;fill:url(#a);enable-background:accumulate"
     height="512"
     width="512"
     y="0"
     x="0"
     id="rect9" />
  <path
     d="m -150.62395,641.53431 c -7.842,0 -14.55,5.029 -17.32,12.19 -0.0612,-6.7e-4 -0.1208,0 -0.1823,0 -7.088,0 -12.83,6.002 -12.83,13.41 0,7.404 5.746,13.41 12.83,13.41 h 17.5 16.33 c 5.155,0 9.333,-4.365 9.333,-9.75 0,-4.543 -2.974,-8.363 -7,-9.445 10e-4,-0.1029 0,-0.2015 0,-0.3047 0,-10.77 -8.357,-19.5 -18.67,-19.5 z"
     style="color:#000000;display:inline;fill:#ffffff;stroke:#cccccc;stroke-width:4;enable-background:accumulate"
     id="path19" />
  <path
     style="color:#000000;display:inline;fill:none;stroke:#cccccc;stroke-width:4;enable-background:accumulate"
     d="m 288.9,828.1 c -6.349,0 -11.78,4.072 -14.02,9.867 -0.0496,-5.5e-4 -0.0978,0 -0.1476,0 -5.738,0 -10.39,4.86 -10.39,10.85 0,5.995 4.652,10.85 10.39,10.85 h 14.17 13.22 c 4.173,0 7.557,-3.534 7.557,-7.894 0,-3.678 -2.408,-6.771 -5.667,-7.647 10e-4,-0.0833 0,-0.1632 0,-0.2467 0,-8.719 -6.766,-15.79 -15.11,-15.79 z"
     id="path21" />
  <g
     style="display:none"
     transform="translate(0,-558.4)"
     id="g33"
     sodipodi:insensitive="true">
    <path
       d="M 166.1,576.4 H 346 c 145.3,0 166.1,20.74 166.1,165.9 v 144.2 c 0,145.2 -20.76,165.9 -166.1,165.9 H 166.1 C 20.8,1052.4 0,1032.4 0,886.9 V 742.7 C 0,597.5 20.76,576.8 166.1,576.8 Z"
       style="display:inline;fill:#0000ff;fill-opacity:0.08118;stroke:#0000ff"
       id="path23" />
    <circle
       style="color:#000000;display:none;fill:#0000ff;fill-opacity:0.08118;stroke:#0000ff;stroke-width:0.8333;enable-background:accumulate"
       cx="256"
       transform="matrix(1.2,0,0,1.2,-51.2,528.8)"
       cy="238"
       r="120"
       id="circle25" />
    <rect
       style="color:#000000;display:none;fill:#0000ff;fill-opacity:0.08118;stroke:#0000ff;stroke-linecap:round;stroke-linejoin:round;enable-background:accumulate"
       height="272"
       width="272"
       y="678.40002"
       x="120"
       id="rect27" />
    <rect
       style="color:#000000;display:none;fill:#0000ff;fill-opacity:0.08118;stroke:#0000ff;stroke-linecap:round;stroke-linejoin:round;enable-background:accumulate"
       height="240"
       width="304"
       y="694.40002"
       x="104"
       id="rect29" />
    <rect
       style="color:#000000;display:none;fill:#0000ff;fill-opacity:0.08118;stroke:#0000ff;stroke-linecap:round;stroke-linejoin:round;enable-background:accumulate"
       height="304"
       width="240"
       y="662.40002"
       x="136"
       id="rect31" />
  </g>
  <g
     transform="translate(0,18)"
     id="g17"
     style="display:inline;fill:#917c6f"
     inkscape:label="Background">
    <path
       style="color:#000000;opacity:0.151284;fill:#917c6f;stroke-width:1.59495;filter:url(#filter1152);enable-background:accumulate"
       d="M 512,-19.607189 0,494 H 512 V -19.607189 c 0,0 -25.60279,24.8961631 0,0 z"
       id="path13"
       sodipodi:nodetypes="ccccc"
       inkscape:label="shading" />
  </g>
  <g
     id="g53"
     style="display:inline;opacity:0.447724;fill:#241f1c;filter:url(#filter1028)"
     inkscape:label="Shadow"
     transform="matrix(0.8131452,-0.05452497,0.0578236,0.86233841,66.573075,34.25803)">
    <path
       style="display:none;opacity:0.1;fill:#241f1c"
       d="m 255.99,172.48 c 7.731,0 15.21,1.074 22.31,3.035 1.253,7.726 5.837,14.84 13.15,19.06 7.298,4.207 15.74,4.629 23.05,1.867 14.22,13.98 23.47,32.99 24.81,54.17 l -27.39,0.4043 c -2.5,-28.7 -26.6,-51.2 -55.9,-51.2 -8.451,0 -16.47,1.88 -23.65,5.225 l -13.4,-23.9 c 11.16,-5.522 23.72,-8.645 37.01,-8.645 z m -43.80905,4.03 14.06,23.54 c -14.44,10.16 -23.88,26.95 -23.88,45.95 0,19 9.437,35.78 23.88,45.94 l -14.06,23.55 c -16.83,-11.24 -29.34,-28.43 -34.54,-48.55 6.069,-4.952 9.953,-12.49 9.953,-20.94 0,-8.451 -3.884,-15.99 -9.953,-20.94 5.201,-20.12 17.72,-37.3 34.54,-48.55 z m 99.69905,84.47 27.4,0.4023 c -1.348,21.18 -10.6,40.19 -24.81,54.17 -7.31,-2.762 -15.75,-2.347 -23.05,1.867 -7.309,4.227 -11.89,11.34 -13.15,19.06 -7.104,1.967 -14.58,3.041 -22.31,3.041 -13.29,0 -25.86,-3.124 -37.01,-8.652 l 13.36,-23.94 c 7.186,3.344 15.2,5.225 23.65,5.225 29.34,0 53.41,-22.49 55.93,-51.18 z m -7.482,60.6 c 6.816,-0.1758 13.51,3.289 17.16,9.607 5.311,9.197 2.16,20.95 -7.035,26.25 -9.196,5.311 -20.95,2.159 -26.25,-7.037 -5.312,-9.191 -2.159,-20.94 7.037,-26.25 2.872,-1.658 5.994,-2.49 9.092,-2.57 z"
       id="path11"
       sodipodi:nodetypes="ccccccsccccccscccscccccccsccsccccccccc" />
    <path
       style="display:none;opacity:0.1;fill:#241f1c;stroke-width:0.784224"
       d="m 121.48324,340.54389 c 5.6266,0.70766 10.96069,2.28609 15.92882,4.56803 0.127,6.54463 2.74048,12.88483 7.63413,17.06631 4.88405,4.16929 10.98525,5.29324 16.58606,3.66371 8.92897,12.93644 13.72977,29.60416 12.55321,47.35379 l -19.97545,-2.17068 c 1.09631,-24.11432 -14.15772,-45.04587 -35.48219,-47.72787 -6.15062,-0.77357 -12.17783,0.057 -17.74326,2.18366 l -7.32435,-21.11728 c 8.68323,-3.57412 18.14166,-5.02353 27.81409,-3.80702 z"
       id="path143"
       sodipodi:nodetypes="ccccccscccc" />
    <path
       style="display:inline;opacity:1;fill:#241f1c;fill-opacity:1;filter:url(#filter70)"
       d="m 70.781582,405.57409 c 6.816,-0.1758 13.51,3.289 17.16,9.607 5.311,9.197 2.16,20.95 -7.035,26.25 -9.196,5.311 -20.95,2.159 -26.25,-7.037 -5.312,-9.191 -2.159,-20.94 7.037,-26.25 2.872,-1.658 5.994,-2.49 9.092,-2.57 z"
       id="path68"
       sodipodi:nodetypes="ccccccc"
       inkscape:label="dot"
       transform="matrix(3.5953014,0.00263986,0.00296893,3.5537385,-164.97489,-1063.3513)" />
    <path
       style="display:inline;fill:#241f1c;stroke-width:1.80946;enable-background:new"
       d="m 176.44271,334.22292 c -5.31515,4.49621 -14.76723,15.75278 -3.34734,31.41219 16.59467,15.79482 31.27719,8.47016 38.43023,4.34625 23.71868,34.62996 26.09516,50.46216 23.94998,87.56896 l -46.0072,-2.86066 C 193.48556,398.19804 148.42033,357.23762 73.514352,352.50139 l 2.947635,-44.96427 c 0,0 72.555083,0.69158 99.980723,26.6858 z"
       id="path145-3-6-7"
       sodipodi:nodetypes="cccccccc"
       inkscape:label="Small" />
    <path
       style="display:inline;fill:#241f1c;stroke-width:2.85009;enable-background:new"
       d="m 237.10934,260.04488 c -8.11539,7.37638 -22.57333,25.81627 -5.3397,51.29368 25.09856,25.6616 47.47564,13.60202 58.38178,6.82019 35.77673,56.3529 39.26235,82.17673 35.70441,142.75639 l -69.91116,-4.34151 C 262.50339,364.34145 194.32912,297.80818 80.50481,290.61117 l 4.840646,-73.41006 c 0,0 110.283164,0.61227 151.763884,42.84377 z"
       id="path145-3-6"
       sodipodi:nodetypes="cccccccc"
       inkscape:label="Big" />
    <path
       style="display:inline;fill:#241f1c;stroke-width:4.44721;enable-background:new"
       d="m 323.99066,143.95309 c -12.32144,11.93013 -34.30999,41.71717 -8.43415,82.63943 37.76539,41.16965 71.6818,21.60816 88.21831,10.6181 53.69344,90.52964 58.78146,132.09584 52.97573,229.67872 l -105.66687,-6.5541 C 361.64911,311.75871 259.04611,205.0369 87.007858,194.15906 L 94.843229,75.905399 c 0,0 166.730811,0.295605 229.147431,68.047691 z"
       id="path145-3"
       sodipodi:nodetypes="cccccccc"
       inkscape:label="Bigger" />
  </g>
  <g
     id="g1026"
     style="display:inline"
     inkscape:label="Waves"
     transform="matrix(0.8131452,-0.05452497,0.0578236,0.86233841,45.869146,14.840268)">
    <path
       style="display:none;opacity:0.1"
       d="m 255.99,172.48 c 7.731,0 15.21,1.074 22.31,3.035 1.253,7.726 5.837,14.84 13.15,19.06 7.298,4.207 15.74,4.629 23.05,1.867 14.22,13.98 23.47,32.99 24.81,54.17 l -27.39,0.4043 c -2.5,-28.7 -26.6,-51.2 -55.9,-51.2 -8.451,0 -16.47,1.88 -23.65,5.225 l -13.4,-23.9 c 11.16,-5.522 23.72,-8.645 37.01,-8.645 z m -43.80905,4.03 14.06,23.54 c -14.44,10.16 -23.88,26.95 -23.88,45.95 0,19 9.437,35.78 23.88,45.94 l -14.06,23.55 c -16.83,-11.24 -29.34,-28.43 -34.54,-48.55 6.069,-4.952 9.953,-12.49 9.953,-20.94 0,-8.451 -3.884,-15.99 -9.953,-20.94 5.201,-20.12 17.72,-37.3 34.54,-48.55 z m 99.69905,84.47 27.4,0.4023 c -1.348,21.18 -10.6,40.19 -24.81,54.17 -7.31,-2.762 -15.75,-2.347 -23.05,1.867 -7.309,4.227 -11.89,11.34 -13.15,19.06 -7.104,1.967 -14.58,3.041 -22.31,3.041 -13.29,0 -25.86,-3.124 -37.01,-8.652 l 13.36,-23.94 c 7.186,3.344 15.2,5.225 23.65,5.225 29.34,0 53.41,-22.49 55.93,-51.18 z m -7.482,60.6 c 6.816,-0.1758 13.51,3.289 17.16,9.607 5.311,9.197 2.16,20.95 -7.035,26.25 -9.196,5.311 -20.95,2.159 -26.25,-7.037 -5.312,-9.191 -2.159,-20.94 7.037,-26.25 2.872,-1.658 5.994,-2.49 9.092,-2.57 z"
       id="path1014"
       sodipodi:nodetypes="ccccccsccccccscccscccccccsccsccccccccc" />
    <path
       style="display:none;opacity:0.1;fill:#ff6600;stroke-width:0.784224"
       d="m 121.48324,340.54389 c 5.6266,0.70766 10.96069,2.28609 15.92882,4.56803 0.127,6.54463 2.74048,12.88483 7.63413,17.06631 4.88405,4.16929 10.98525,5.29324 16.58606,3.66371 8.92897,12.93644 13.72977,29.60416 12.55321,47.35379 l -19.97545,-2.17068 c 1.09631,-24.11432 -14.15772,-45.04587 -35.48219,-47.72787 -6.15062,-0.77357 -12.17783,0.057 -17.74326,2.18366 l -7.32435,-21.11728 c 8.68323,-3.57412 18.14166,-5.02353 27.81409,-3.80702 z"
       id="path1016"
       sodipodi:nodetypes="ccccccscccc" />
    <path
       style="display:inline;opacity:1;fill:#ff6600;fill-opacity:1;filter:url(#filter70)"
       d="m 70.781582,405.57409 c 6.816,-0.1758 13.51,3.289 17.16,9.607 5.311,9.197 2.16,20.95 -7.035,26.25 -9.196,5.311 -20.95,2.159 -26.25,-7.037 -5.312,-9.191 -2.159,-20.94 7.037,-26.25 2.872,-1.658 5.994,-2.49 9.092,-2.57 z"
       id="path1018"
       sodipodi:nodetypes="ccccccc"
       inkscape:label="dot"
       transform="matrix(3.5953014,0.00263986,0.00296893,3.5537385,-164.97489,-1063.3513)" />
    <path
       style="display:inline;fill:#ff6600;stroke-width:1.80946;enable-background:new"
       d="m 176.44271,334.22292 c -5.31515,4.49621 -14.76723,15.75278 -3.34734,31.41219 16.59467,15.79482 31.27719,8.47016 38.43023,4.34625 23.71868,34.62996 26.09516,50.46216 23.94998,87.56896 l -46.0072,-2.86066 C 193.48556,398.19804 148.42033,357.23762 73.514352,352.50139 l 2.947635,-44.96427 c 0,0 72.555083,0.69158 99.980723,26.6858 z"
       id="path1020"
       sodipodi:nodetypes="cccccccc"
       inkscape:label="Small" />
    <path
       style="display:inline;fill:#ff6600;stroke-width:2.85009;enable-background:new"
       d="m 237.10934,260.04488 c -8.11539,7.37638 -22.57333,25.81627 -5.3397,51.29368 25.09856,25.6616 47.47564,13.60202 58.38178,6.82019 35.77673,56.3529 39.26235,82.17673 35.70441,142.75639 l -69.91116,-4.34151 C 262.50339,364.34145 194.32912,297.80818 80.50481,290.61117 l 4.840646,-73.41006 c 0,0 110.283164,0.61227 151.763884,42.84377 z"
       id="path1022"
       sodipodi:nodetypes="cccccccc"
       inkscape:label="Big" />
    <path
       style="display:inline;fill:#ff6600;stroke-width:4.44721;enable-background:new"
       d="m 323.99066,143.95309 c -12.32144,11.93013 -34.30999,41.71717 -8.43415,82.63943 37.76539,41.16965 71.6818,21.60816 88.21831,10.6181 53.69344,90.52964 58.78146,132.09584 52.97573,229.67872 l -105.66687,-6.5541 C 361.64911,311.75871 259.04611,205.0369 87.007858,194.15906 L 94.843229,75.905399 c 0,0 166.730811,0.295605 229.147431,68.047691 z"
       id="path1024"
       sodipodi:nodetypes="cccccccc"
       inkscape:label="Bigger" />
  </g>
</svg>
